<svg xmlns="http://www.w3.org/2000/svg" width="31" height="30" viewBox="0 0 31 30">
    <g fill="none" fill-rule="evenodd">
        <path fill="#3B5998" d="M.488 15c0-8.284 6.667-15 14.892-15 8.224 0 14.89 6.716 14.89 15 0 8.284-6.666 15-14.89 15C7.155 30 .488 23.284.488 15z"/>
        <path fill="#FFF" d="M16.625 23.16v-8.161h2.233l.296-2.812h-2.53l.004-1.408c0-.733.07-1.126 1.114-1.126h1.396V6.84h-2.233c-2.683 0-3.627 1.364-3.627 3.659v1.688h-1.673V15h1.673v8.16h3.347z"/>
    </g>
</svg>
